<svg xmlns="http://www.w3.org/2000/svg" xmlns:xlink="http://www.w3.org/1999/xlink" width="14" height="16" viewBox="0 0 14 16">
    <defs>
        <path id="a" d="M12.538 2.154H11v-.616c0-.492-.4-.923-.923-.923-.492 0-.923.4-.923.923v.616H4.846v-.616c0-.492-.4-.923-.923-.923-.492 0-.923.4-.923.923v.616H1.462c-.677 0-1.231.554-1.231 1.23v.77c0 .246.215.461.461.461h12.616a.473.473 0 0 0 .461-.461v-.77c0-.676-.554-1.23-1.23-1.23zm.77 4H.692a.473.473 0 0 0-.461.461v7.539c0 .677.554 1.23 1.23 1.23h11.077c.677 0 1.231-.553 1.231-1.23V6.615a.473.473 0 0 0-.461-.461zM9.092 9.077L7.154 13.2c-.092.215-.308.338-.554.338a.579.579 0 0 1-.585-.553c0-.062.031-.154.062-.247l1.63-3.507H5.37c-.277 0-.523-.185-.523-.462 0-.246.246-.461.523-.461h3.2c.308 0 .585.246.585.554 0 .092-.03.153-.062.215z"/>
    </defs>
    <use fill="#BFC5D0" fill-rule="evenodd" xlink:href="#a"/>
</svg>
