<svg xmlns="http://www.w3.org/2000/svg" width="16" height="16" viewBox="0 0 16 16">
    <g fill="none" fill-rule="evenodd">
        <rect width="16" height="16" fill="#4086F7" rx="2"/>
        <path fill="#FFF" d="M6.583 9.828L4.46 7.708a1 1 0 1 0-1.414 1.414l2.829 2.828a.997.997 0 0 0 1.414 0l5.657-5.657a1 1 0 1 0-1.415-1.414l-4.95 4.95z"/>
    </g>
</svg>
