<svg xmlns="http://www.w3.org/2000/svg" xmlns:xlink="http://www.w3.org/1999/xlink" width="15" height="14" viewBox="0 0 15 14">
    <defs>
        <path id="a" d="M17.888 62.64c.124.154.124.401 0 .525l-3.87 3.763a.735.735 0 0 1-.53.216.735.735 0 0 1-.53-.216l-1.841-1.82a.352.352 0 0 1 0-.524l.53-.525a.362.362 0 0 1 .53 0l1.343 1.296 3.307-3.24a.362.362 0 0 1 .53 0l.53.525zM19.13 65h4.981a1 1 0 0 1 1 1v.005a1 1 0 0 1-1 1h-4.981a1 1 0 0 1-1-1V66a1 1 0 0 1 1-1zm-3.66 4h8.546a1 1 0 0 1 1 1v.005a1 1 0 0 1-1 1h-8.545a1 1 0 0 1-1-1V70a1 1 0 0 1 1-1zm0 4h8.546a1 1 0 0 1 1 1v.005a1 1 0 0 1-1 1h-8.545a1 1 0 0 1-1-1V74a1 1 0 0 1 1-1zM12 69a1 1 0 0 1 1 1v.005a1 1 0 0 1-2 0V70a1 1 0 0 1 1-1zm0 4a1 1 0 0 1 1 1v.005a1 1 0 0 1-2 0V74a1 1 0 0 1 1-1z"/>
    </defs>
    <use fill="#BFC5D0" fill-rule="evenodd" transform="translate(-11 -62)" xlink:href="#a"/>
</svg>
